<svg width="23" height="25" viewBox="0 0 23 25" fill="none" xmlns="http://www.w3.org/2000/svg">
<g style="mix-blend-mode:exclusion">
<path d="M2.00536 22.5009L0 0H22.0429L20.0348 22.4973L11.008 25L2.00536 22.5009Z" fill="#1572B6"/>
<path d="M11.0214 23.0875L18.3161 21.0652L20.0321 1.84021H11.0214V23.0875Z" fill="#33A9DC"/>
<path d="M11.0214 9.99196H14.6732L14.925 7.16607H11.0214V4.40625H11.0312H17.9411L17.875 5.14643L17.1973 12.7518H11.0214V9.99196Z" fill="white"/>
<path d="M11.0384 17.1589L11.0259 17.1625L7.95268 16.3321L7.75625 14.1312H6.2625H4.98572L5.37233 18.4643L11.025 20.0339L11.0384 20.0303V17.1589Z" fill="#EBEBEB"/>
<path d="M14.4384 12.6348L14.1062 16.3303L11.0286 17.1607V20.0321L16.6857 18.4642L16.7277 17.9982L17.2071 12.6348H14.4384Z" fill="white"/>
<path d="M11.0313 4.40625V6.12054V7.15893V7.16607H4.37411H4.36518L4.30982 6.54554L4.18393 5.14643L4.11786 4.40625H11.0313Z" fill="#EBEBEB"/>
<path d="M11.0214 9.99194V11.7062V12.7446V12.7518H7.99553H7.9866L7.93124 12.1312L7.80625 10.7321L7.74017 9.99194H11.0214Z" fill="#EBEBEB"/>
</g>
</svg>
