<svg width="30" height="30" viewBox="0 0 30 30" fill="none" xmlns="http://www.w3.org/2000/svg">
<g style="mix-blend-mode:exclusion">
<path d="M28.472 13.753L16.247 1.52795C16.0798 1.36015 15.8811 1.227 15.6623 1.13615C15.4435 1.0453 15.2089 0.998535 14.972 0.998535C14.7351 0.998535 14.5005 1.0453 14.2818 1.13615C14.063 1.227 13.8643 1.36015 13.697 1.52795L11.158 4.06695L14.378 7.28695C14.7577 7.15774 15.1661 7.13778 15.5566 7.22935C15.9471 7.32093 16.304 7.52035 16.5867 7.8049C16.8694 8.08945 17.0664 8.44769 17.1554 8.83878C17.2444 9.22988 17.2218 9.63811 17.09 10.017L20.19 13.117C20.6534 12.9578 21.1573 12.9622 21.6179 13.1294C22.0784 13.2967 22.4677 13.6167 22.7209 14.0362C22.9741 14.4556 23.076 14.9492 23.0095 15.4346C22.9429 15.92 22.7121 16.368 22.3554 16.7039C21.9987 17.0398 21.5377 17.2433 21.0491 17.2805C20.5606 17.3177 20.074 17.1864 19.6706 16.9085C19.2671 16.6305 18.971 16.2227 18.8317 15.753C18.6924 15.2832 18.7183 14.7799 18.905 14.327L16.01 11.432V19.049C16.4486 19.2662 16.7994 19.6272 17.0042 20.0717C17.2089 20.5163 17.2552 21.0175 17.1352 21.492C17.0153 21.9665 16.7364 22.3856 16.345 22.6795C15.9537 22.9734 15.4734 23.1243 14.9843 23.1071C14.4952 23.0899 14.0267 22.9056 13.6569 22.585C13.2872 22.2644 13.0384 21.8268 12.9521 21.345C12.8658 20.8633 12.9471 20.3665 13.1825 19.9374C13.418 19.5084 13.7933 19.1729 14.246 18.987V11.3C13.9841 11.1925 13.7461 11.0343 13.5456 10.8344C13.3451 10.6346 13.1861 10.397 13.0778 10.1354C12.9695 9.87388 12.9141 9.59347 12.9146 9.31038C12.9152 9.02728 12.9717 8.7471 13.081 8.48595L9.91103 5.31395L1.52803 13.7C1.36007 13.8672 1.2268 14.066 1.13586 14.2849C1.04492 14.5037 0.998108 14.7384 0.998108 14.9755C0.998108 15.2125 1.04492 15.4472 1.13586 15.6661C1.2268 15.8849 1.36007 16.0837 1.52803 16.251L13.753 28.472C13.9203 28.6398 14.119 28.7729 14.3378 28.8638C14.5565 28.9546 14.7911 29.0014 15.028 29.0014C15.2649 29.0014 15.4995 28.9546 15.7183 28.8638C15.9371 28.7729 16.1358 28.6398 16.303 28.472L28.472 16.3C28.64 16.1327 28.7733 15.9339 28.8642 15.7151C28.9551 15.4962 29.0019 15.2615 29.0019 15.0245C29.0019 14.7874 28.9551 14.5527 28.8642 14.3339C28.7733 14.115 28.64 13.9162 28.472 13.749" fill="#DD4C35"/>
</g>
</svg>
