<svg width="23" height="23" viewBox="0 0 23 23" fill="none" xmlns="http://www.w3.org/2000/svg">
<g style="mix-blend-mode:exclusion">
<path d="M23 0H0V23H23V0Z" fill="#F5DE19"/>
<path d="M15.4503 17.9688C15.6462 18.3669 15.9507 18.7015 16.3286 18.934C16.7064 19.1665 17.1423 19.2875 17.586 19.2831C18.4814 19.2831 19.0539 18.8354 19.0539 18.2152C19.0539 17.476 18.4657 17.2115 17.48 16.7802L16.9395 16.5486C15.3788 15.884 14.3438 15.0519 14.3438 13.2924C14.3438 11.6717 15.576 10.4371 17.5088 10.4371C18.1345 10.3919 18.7596 10.532 19.3062 10.8398C19.8528 11.1476 20.2968 11.6095 20.5826 12.1679L18.8929 13.2481C18.7828 12.9712 18.5912 12.7343 18.3434 12.5688C18.0956 12.4033 17.8034 12.3171 17.5055 12.3215C17.3755 12.3085 17.2442 12.3227 17.1201 12.3632C16.9959 12.4037 16.8815 12.4697 16.7842 12.5568C16.6869 12.644 16.6088 12.7505 16.555 12.8695C16.5011 12.9885 16.4726 13.1174 16.4713 13.2481C16.4713 13.8962 16.873 14.159 17.8004 14.5623L18.3409 14.794C20.1776 15.5817 21.2159 16.3843 21.2159 18.189C21.2159 20.1349 19.6872 21.2011 17.6345 21.2011C16.8346 21.2521 16.0372 21.0705 15.3383 20.6783C14.6393 20.286 14.0689 19.6999 13.6957 18.9907L15.4503 17.9688ZM7.8151 18.1561C8.15435 18.7582 8.46321 19.2675 9.20578 19.2675C9.9155 19.2675 10.364 18.9898 10.364 17.9097V10.5603H12.5252V17.9384C12.5252 20.176 11.2109 21.1946 9.29778 21.1946C8.62154 21.2315 7.94994 21.063 7.37127 20.7111C6.7926 20.3593 6.33395 19.8405 6.0556 19.2231L7.8151 18.1561Z" fill="black"/>
</g>
</svg>
