<svg width="23" height="23" viewBox="0 0 23 23" fill="none" xmlns="http://www.w3.org/2000/svg">
<path d="M23 0H0V23H23V0Z" fill="white" fill-opacity="0.33"/>
<path d="M15.4502 17.9688C15.6462 18.3669 15.9507 18.7015 16.3285 18.934C16.7064 19.1665 17.1423 19.2875 17.5859 19.2831C18.4813 19.2831 19.0538 18.8354 19.0538 18.2152C19.0538 17.476 18.4657 17.2115 17.48 16.7802L16.9395 16.5486C15.3788 15.884 14.3438 15.0519 14.3438 13.2924C14.3438 11.6717 15.5759 10.4371 17.5087 10.4371C18.1344 10.3919 18.7595 10.532 19.3062 10.8398C19.8528 11.1476 20.2967 11.6095 20.5825 12.1679L18.8928 13.2481C18.7828 12.9712 18.5911 12.7343 18.3434 12.5688C18.0956 12.4033 17.8034 12.3171 17.5054 12.3215C17.3755 12.3085 17.2442 12.3227 17.12 12.3632C16.9958 12.4037 16.8814 12.4697 16.7841 12.5568C16.6868 12.644 16.6088 12.7505 16.5549 12.8695C16.501 12.9885 16.4725 13.1174 16.4713 13.2481C16.4713 13.8962 16.8729 14.159 17.8003 14.5623L18.3408 14.794C20.1775 15.5817 21.2158 16.3843 21.2158 18.189C21.2158 20.1349 19.6871 21.2011 17.6344 21.2011C16.8346 21.2521 16.0371 21.0705 15.3382 20.6783C14.6393 20.286 14.0688 19.6999 13.6956 18.9907L15.4502 17.9688ZM7.81504 18.1561C8.15429 18.7582 8.46315 19.2675 9.20572 19.2675C9.91543 19.2675 10.3639 18.9898 10.3639 17.9097V10.5603H12.5251V17.9384C12.5251 20.176 11.2108 21.1946 9.29772 21.1946C8.62148 21.2315 7.94988 21.063 7.37121 20.7111C6.79254 20.3593 6.33389 19.8405 6.05554 19.2231L7.81504 18.1561Z" fill="white" fill-opacity="0.33"/>
</svg>
