<svg width="33" height="33" viewBox="0 0 33 33" fill="none" xmlns="http://www.w3.org/2000/svg">
<path d="M29.8806 0H3.1194C1.3966 0 0 1.3966 0 3.1194V29.8806C0 31.6034 1.3966 33 3.1194 33H29.8806C31.6034 33 33 31.6034 33 29.8806V3.1194C33 1.3966 31.6034 0 29.8806 0Z" fill="#379AD0"/>
<path fill-rule="evenodd" clip-rule="evenodd" d="M6.40308 16.7468V26.5975H11.1643V15.9259V13.1349H6.40308V16.7468Z" fill="#FEFEFE"/>
<path fill-rule="evenodd" clip-rule="evenodd" d="M8.86576 6.40305C7.55233 6.40305 6.40308 7.5523 6.40308 8.86573C6.40308 10.015 7.55233 11.1642 8.86576 11.1642C10.015 11.1642 11.1643 10.015 11.1643 8.86573C11.1643 7.5523 10.015 6.40305 8.86576 6.40305Z" fill="#FEFEFE"/>
<path fill-rule="evenodd" clip-rule="evenodd" d="M26.4331 17.2393C26.1047 14.7766 24.9555 13.1349 21.5077 13.1349C19.5376 13.1349 18.2241 13.9558 17.5674 14.9408V13.1349H13.7913V15.7617V26.5975H17.7316V19.8662C17.7316 18.2244 18.06 16.4184 20.1943 16.4184C22.3286 16.4184 22.4928 18.5528 22.4928 20.0304V26.5975H26.5973V19.2095C26.5973 18.5528 26.5973 17.8961 26.4331 17.2393Z" fill="#FEFEFE"/>
</svg>
