<svg width="22" height="24" viewBox="0 0 22 24" fill="none" xmlns="http://www.w3.org/2000/svg">
<g style="mix-blend-mode:exclusion">
<path d="M10.6416 24C10.3178 24.0001 9.99971 23.915 9.71928 23.7531L6.78439 22.0157C6.34638 21.7705 6.55981 21.684 6.70467 21.6334C7.17051 21.4895 7.61654 21.2879 8.0324 21.0334C8.06721 21.0173 8.10555 21.0103 8.1438 21.0132C8.18205 21.016 8.21894 21.0286 8.25098 21.0497L10.5062 22.3894C10.5481 22.4116 10.5949 22.4232 10.6424 22.4232C10.6899 22.4232 10.7367 22.4116 10.7787 22.3894L19.5731 17.3133C19.6143 17.2887 19.6483 17.2538 19.6719 17.212C19.6955 17.1702 19.7078 17.123 19.7077 17.075V6.92119C19.7077 6.87246 19.6952 6.82454 19.6713 6.78205C19.6475 6.73956 19.6131 6.70394 19.5714 6.67862L10.777 1.60683C10.7355 1.58348 10.6887 1.57121 10.6412 1.57121C10.5936 1.57121 10.5468 1.58348 10.5053 1.60683L1.71603 6.68033C1.6741 6.70512 1.63929 6.74033 1.61497 6.78252C1.59064 6.82472 1.57762 6.87248 1.57717 6.92119V17.0708C1.57729 17.1186 1.59013 17.1656 1.61438 17.2069C1.63863 17.2481 1.67342 17.2822 1.71517 17.3056L4.12721 18.6976C5.43437 19.3508 6.23495 18.5811 6.23495 17.8079V7.78692C6.23495 7.71872 6.26204 7.65331 6.31027 7.60509C6.35849 7.55686 6.4239 7.52977 6.4921 7.52977H7.6064C7.6746 7.52977 7.74 7.55686 7.78823 7.60509C7.83645 7.65331 7.86354 7.71872 7.86354 7.78692V17.8088C7.86354 19.5531 6.91382 20.5517 5.25951 20.5517C4.54582 20.5641 3.84333 20.3732 3.23405 20.0014L0.922304 18.6754C0.641662 18.5119 0.408798 18.2777 0.246959 17.9962C0.0851202 17.7146 -3.10689e-05 17.3955 6.09592e-06 17.0708V6.92119C-0.000828074 6.59593 0.0839629 6.27617 0.245858 5.99406C0.407754 5.71194 0.641051 5.47741 0.922304 5.31403L9.71757 0.236241C10.0009 0.08124 10.3186 0 10.6416 0C10.9645 0 11.2823 0.08124 11.5656 0.236241L20.36 5.31403C20.6406 5.47714 20.8735 5.71099 21.0355 5.99225C21.1975 6.27351 21.2829 6.59233 21.2832 6.9169V17.0708C21.2827 17.3955 21.1972 17.7145 21.0353 17.996C20.8733 18.2775 20.6405 18.5117 20.36 18.6754L11.5656 23.7531C11.2846 23.9152 10.9659 24.0004 10.6416 24V24Z" fill="#83CD29"/>
<path d="M8.97357 13.6739C8.97357 13.6057 9.00066 13.5403 9.04889 13.492C9.09711 13.4438 9.16252 13.4167 9.23072 13.4167H10.3682C10.4289 13.4169 10.4877 13.4386 10.534 13.478C10.5803 13.5174 10.6111 13.5719 10.621 13.6319C10.7925 14.7899 11.3067 15.3736 13.6322 15.3736C15.4845 15.3736 16.274 14.9545 16.274 13.9713C16.274 13.4047 16.0502 12.9839 13.1711 12.7019C10.7642 12.4636 9.27615 11.9304 9.27615 10.007C9.27615 8.23266 10.7719 7.17407 13.2791 7.17407C16.0965 7.17407 17.4911 8.15209 17.6677 10.2504C17.6704 10.2854 17.6659 10.3206 17.6544 10.3539C17.643 10.3871 17.6249 10.4176 17.6012 10.4436C17.5775 10.4695 17.5487 10.4903 17.5167 10.5047C17.4846 10.5191 17.45 10.5268 17.4148 10.5273H16.2697C16.2122 10.5265 16.1567 10.5064 16.112 10.4704C16.0672 10.4344 16.0358 10.3844 16.0228 10.3284C15.7494 9.11039 15.0799 8.72124 13.2799 8.72124C11.257 8.72124 11.0222 9.42582 11.0222 9.95383C11.0222 10.5933 11.2999 10.7801 14.0308 11.141C16.7334 11.4984 18.0174 12.0041 18.0174 13.9036C18.0174 15.8202 16.4197 16.9173 13.6331 16.9173C9.78015 16.9225 8.97357 15.1559 8.97357 13.6739Z" fill="#83CD29"/>
</g>
</svg>
